Project3: ML Exercise on Titanic Dataset
…
Calculate the survival rate of each boat(treat 0 as one boat too):

boat_surv_rate<-all %>% 
  filter(!is.na(all$survived)) %>% 
  group_by(boat,survived) %>% 
  summarise(Percentage=n()) %>% 
  group_by(boat) %>% 
  mutate(Percentage=Percentage/sum(Percentage)*100)
boat_surv_rate <- boat_surv_rate[boat_surv_rate$survived==1,]
boat_surv_rate[with(boat_surv_rate,order(Percentage)),]

## # A tibble: 27 x 3
## # Groups:   boat [27]
##    boat  survived Percentage
##    <fct> <fct>         <dbl>
##  1 0     1              2.40
##  2 A     1             60   
##  3 B     1             83.3 
##  4 D     1             93.8 
##  5 12    1             94.7 
##  6 14    1             96.6 
##  7 1     1            100   
##  8 10    1            100   
##  9 11    1            100   
## 10 13    1            100   
## # ... with 17 more rows
…
